info face="Arial Bold" size=15 bold=1 italic=0 charset="" unicode=0 stretchH=100 smooth=1 aa=1 padding=0,0,0,0 spacing=0,0
common lineHeight=18 base=14 scaleW=512 scaleH=512 pages=1 packed=0
page id=0 file="ArialBold-15.png"
chars count=95
char id=32   x=0     y=0     width=0     height=0     xoffset=0     yoffset=14    xadvance=4     page=0  chnl=0 
char id=64   x=0     y=0     width=16     height=17     xoffset=0     yoffset=2    xadvance=15     page=0  chnl=0 
char id=124   x=16     y=0     width=4     height=16     xoffset=1     yoffset=2    xadvance=4     page=0  chnl=0 
char id=125   x=20     y=0     width=7     height=16     xoffset=0     yoffset=2    xadvance=6     page=0  chnl=0 
char id=123   x=27     y=0     width=7     height=16     xoffset=1     yoffset=2    xadvance=6     page=0  chnl=0 
char id=93   x=34     y=0     width=6     height=16     xoffset=0     yoffset=2    xadvance=5     page=0  chnl=0 
char id=91   x=40     y=0     width=6     height=16     xoffset=1     yoffset=2    xadvance=5     page=0  chnl=0 
char id=41   x=46     y=0     width=6     height=16     xoffset=0     yoffset=2    xadvance=5     page=0  chnl=0 
char id=40   x=52     y=0     width=5     height=16     xoffset=1     yoffset=2    xadvance=5     page=0  chnl=0 
char id=106   x=57     y=0     width=6     height=16     xoffset=-1     yoffset=2    xadvance=4     page=0  chnl=0 
char id=36   x=63     y=0     width=8     height=15     xoffset=0     yoffset=1    xadvance=8     page=0  chnl=0 
char id=38   x=71     y=0     width=11     height=13     xoffset=1     yoffset=2    xadvance=11     page=0  chnl=0 
char id=35   x=82     y=0     width=9     height=13     xoffset=0     yoffset=2    xadvance=8     page=0  chnl=0 
char id=37   x=91     y=0     width=14     height=13     xoffset=0     yoffset=2    xadvance=13     page=0  chnl=0 
char id=92   x=105     y=0     width=5     height=13     xoffset=0     yoffset=2    xadvance=4     page=0  chnl=0 
char id=47   x=110     y=0     width=5     height=13     xoffset=0     yoffset=2    xadvance=4     page=0  chnl=0 
char id=63   x=115     y=0     width=10     height=13     xoffset=0     yoffset=2    xadvance=9     page=0  chnl=0 
char id=33   x=125     y=0     width=4     height=13     xoffset=1     yoffset=2    xadvance=4     page=0  chnl=0 
char id=48   x=129     y=0     width=9     height=13     xoffset=0     yoffset=2    xadvance=8     page=0  chnl=0 
char id=56   x=138     y=0     width=8     height=13     xoffset=0     yoffset=2    xadvance=8     page=0  chnl=0 
char id=55   x=146     y=0     width=9     height=13     xoffset=0     yoffset=2    xadvance=8     page=0  chnl=0 
char id=53   x=155     y=0     width=9     height=13     xoffset=0     yoffset=2    xadvance=8     page=0  chnl=0 
char id=52   x=164     y=0     width=9     height=13     xoffset=0     yoffset=2    xadvance=8     page=0  chnl=0 
char id=51   x=173     y=0     width=9     height=13     xoffset=0     yoffset=2    xadvance=8     page=0  chnl=0 
char id=50   x=182     y=0     width=9     height=13     xoffset=0     yoffset=2    xadvance=8     page=0  chnl=0 
char id=49   x=191     y=0     width=7     height=13     xoffset=1     yoffset=2    xadvance=8     page=0  chnl=0 
char id=121   x=198     y=0     width=9     height=13     xoffset=0     yoffset=5    xadvance=7     page=0  chnl=0 
char id=113   x=207     y=0     width=9     height=13     xoffset=1     yoffset=5    xadvance=9     page=0  chnl=0 
char id=112   x=216     y=0     width=8     height=13     xoffset=1     yoffset=5    xadvance=9     page=0  chnl=0 
char id=108   x=224     y=0     width=4     height=13     xoffset=1     yoffset=2    xadvance=4     page=0  chnl=0 
char id=107   x=228     y=0     width=8     height=13     xoffset=1     yoffset=2    xadvance=8     page=0  chnl=0 
char id=105   x=236     y=0     width=4     height=13     xoffset=1     yoffset=2    xadvance=4     page=0  chnl=0 
char id=104   x=240     y=0     width=9     height=13     xoffset=1     yoffset=2    xadvance=9     page=0  chnl=0 
char id=103   x=249     y=0     width=10     height=13     xoffset=0     yoffset=5    xadvance=9     page=0  chnl=0 
char id=102   x=259     y=0     width=7     height=13     xoffset=0     yoffset=2    xadvance=5     page=0  chnl=0 
char id=100   x=266     y=0     width=9     height=13     xoffset=1     yoffset=2    xadvance=9     page=0  chnl=0 
char id=98   x=275     y=0     width=9     height=13     xoffset=1     yoffset=2    xadvance=9     page=0  chnl=0 
char id=90   x=284     y=0     width=10     height=13     xoffset=0     yoffset=2    xadvance=8     page=0  chnl=0 
char id=89   x=294     y=0     width=11     height=13     xoffset=0     yoffset=2    xadvance=10     page=0  chnl=0 
char id=88   x=305     y=0     width=11     height=13     xoffset=0     yoffset=2    xadvance=10     page=0  chnl=0 
char id=87   x=316     y=0     width=15     height=13     xoffset=0     yoffset=2    xadvance=13     page=0  chnl=0 
char id=86   x=331     y=0     width=10     height=13     xoffset=0     yoffset=2    xadvance=9     page=0  chnl=0 
char id=85   x=341     y=0     width=11     height=13     xoffset=1     yoffset=2    xadvance=11     page=0  chnl=0 
char id=84   x=352     y=0     width=10     height=13     xoffset=1     yoffset=2    xadvance=10     page=0  chnl=0 
char id=83   x=362     y=0     width=9     height=13     xoffset=1     yoffset=2    xadvance=10     page=0  chnl=0 
char id=82   x=371     y=0     width=11     height=13     xoffset=1     yoffset=2    xadvance=11     page=0  chnl=0 
char id=81   x=382     y=0     width=12     height=13     xoffset=1     yoffset=3    xadvance=12     page=0  chnl=0 
char id=80   x=394     y=0     width=10     height=13     xoffset=1     yoffset=2    xadvance=10     page=0  chnl=0 
char id=78   x=404     y=0     width=11     height=13     xoffset=1     yoffset=2    xadvance=11     page=0  chnl=0 
char id=77   x=415     y=0     width=13     height=13     xoffset=1     yoffset=2    xadvance=13     page=0  chnl=0 
char id=76   x=428     y=0     width=9     height=13     xoffset=1     yoffset=2    xadvance=9     page=0  chnl=0 
char id=75   x=437     y=0     width=11     height=13     xoffset=1     yoffset=2    xadvance=11     page=0  chnl=0 
char id=74   x=448     y=0     width=9     height=13     xoffset=0     yoffset=2    xadvance=8     page=0  chnl=0 
char id=73   x=457     y=0     width=4     height=13     xoffset=1     yoffset=2    xadvance=4     page=0  chnl=0 
char id=72   x=461     y=0     width=11     height=13     xoffset=1     yoffset=2    xadvance=11     page=0  chnl=0 
char id=71   x=472     y=0     width=12     height=13     xoffset=1     yoffset=2    xadvance=12     page=0  chnl=0 
char id=70   x=484     y=0     width=9     height=13     xoffset=1     yoffset=2    xadvance=9     page=0  chnl=0 
char id=69   x=493     y=0     width=10     height=13     xoffset=1     yoffset=2    xadvance=10     page=0  chnl=0 
char id=68   x=0     y=17     width=11     height=13     xoffset=1     yoffset=2    xadvance=11     page=0  chnl=0 
char id=67   x=11     y=17     width=10     height=13     xoffset=1     yoffset=2    xadvance=11     page=0  chnl=0 
char id=66   x=21     y=17     width=11     height=13     xoffset=1     yoffset=2    xadvance=11     page=0  chnl=0 
char id=65   x=32     y=17     width=13     height=13     xoffset=-1     yoffset=2    xadvance=9     page=0  chnl=0 
char id=127   x=45     y=17     width=9     height=12     xoffset=2     yoffset=3    xadvance=11     page=0  chnl=0 
char id=59   x=54     y=17     width=4     height=12     xoffset=1     yoffset=5    xadvance=4     page=0  chnl=0 
char id=57   x=58     y=17     width=9     height=12     xoffset=0     yoffset=3    xadvance=8     page=0  chnl=0 
char id=54   x=67     y=17     width=9     height=12     xoffset=0     yoffset=3    xadvance=8     page=0  chnl=0 
char id=79   x=76     y=17     width=12     height=12     xoffset=1     yoffset=3    xadvance=12     page=0  chnl=0 
char id=116   x=88     y=17     width=7     height=11     xoffset=0     yoffset=4    xadvance=5     page=0  chnl=0 
char id=43   x=95     y=17     width=10     height=10     xoffset=0     yoffset=3    xadvance=9     page=0  chnl=0 
char id=58   x=105     y=17     width=4     height=10     xoffset=1     yoffset=5    xadvance=4     page=0  chnl=0 
char id=122   x=109     y=17     width=8     height=10     xoffset=1     yoffset=5    xadvance=8     page=0  chnl=0 
char id=120   x=117     y=17     width=9     height=10     xoffset=0     yoffset=5    xadvance=8     page=0  chnl=0 
char id=119   x=126     y=17     width=12     height=10     xoffset=0     yoffset=5    xadvance=11     page=0  chnl=0 
char id=118   x=138     y=17     width=10     height=10     xoffset=0     yoffset=5    xadvance=9     page=0  chnl=0 
char id=117   x=148     y=17     width=9     height=10     xoffset=1     yoffset=5    xadvance=9     page=0  chnl=0 
char id=115   x=157     y=17     width=8     height=10     xoffset=1     yoffset=5    xadvance=8     page=0  chnl=0 
char id=114   x=165     y=17     width=6     height=10     xoffset=1     yoffset=5    xadvance=6     page=0  chnl=0 
char id=111   x=171     y=17     width=8     height=10     xoffset=1     yoffset=5    xadvance=9     page=0  chnl=0 
char id=110   x=179     y=17     width=9     height=10     xoffset=1     yoffset=5    xadvance=9     page=0  chnl=0 
char id=109   x=188     y=17     width=12     height=10     xoffset=1     yoffset=5    xadvance=12     page=0  chnl=0 
char id=101   x=200     y=17     width=9     height=10     xoffset=1     yoffset=5    xadvance=9     page=0  chnl=0 
char id=99   x=209     y=17     width=7     height=10     xoffset=1     yoffset=5    xadvance=8     page=0  chnl=0 
char id=97   x=216     y=17     width=8     height=10     xoffset=1     yoffset=5    xadvance=8     page=0  chnl=0 
char id=62   x=224     y=17     width=9     height=9     xoffset=0     yoffset=5    xadvance=9     page=0  chnl=0 
char id=60   x=233     y=17     width=9     height=9     xoffset=0     yoffset=5    xadvance=9     page=0  chnl=0 
char id=94   x=242     y=17     width=9     height=8     xoffset=0     yoffset=2    xadvance=9     page=0  chnl=0 
char id=61   x=251     y=17     width=10     height=7     xoffset=0     yoffset=5    xadvance=9     page=0  chnl=0 
char id=42   x=261     y=17     width=6     height=6     xoffset=0     yoffset=2    xadvance=6     page=0  chnl=0 
char id=44   x=267     y=17     width=4     height=6     xoffset=1     yoffset=11    xadvance=4     page=0  chnl=0 
char id=39   x=271     y=17     width=4     height=6     xoffset=1     yoffset=2    xadvance=4     page=0  chnl=0 
char id=34   x=275     y=17     width=8     height=6     xoffset=1     yoffset=2    xadvance=7     page=0  chnl=0 
char id=126   x=283     y=17     width=10     height=5     xoffset=0     yoffset=6    xadvance=9     page=0  chnl=0 
char id=95   x=293     y=17     width=10     height=4     xoffset=0     yoffset=14    xadvance=8     page=0  chnl=0 
char id=45   x=303     y=17     width=6     height=4     xoffset=1     yoffset=8    xadvance=5     page=0  chnl=0 
char id=46   x=309     y=17     width=4     height=4     xoffset=1     yoffset=11    xadvance=4     page=0  chnl=0 
char id=96   x=313     y=17     width=4     height=4     xoffset=0     yoffset=2    xadvance=5     page=0  chnl=0 
